…
``` r
brfss_df |>
  group_by(year,locationabbr)|>
  summarize(n_obs = n()) |>
  filter(year == 2002, n_obs >= 7)
```

    ## `summarise()` has grouped output by 'year'. You can override using the
    ## `.groups` argument.

    ## # A tibble: 36 × 3
    ## # Groups:   year [1]
    ##     year locationabbr n_obs
    ##    <int> <chr>        <int>
    ##  1  2002 AZ              10
    ##  2  2002 CO              20
    ##  3  2002 CT              35
    ##  4  2002 DE              15
    ##  5  2002 FL              35
    ##  6  2002 GA              15
    ##  7  2002 HI              20
    ##  8  2002 ID              10
    ##  9  2002 IL              15
    ## 10  2002 IN              10
    ## # ℹ 26 more rows

In 2002, which states were observed at 7 or more locations? 36.

``` r
brfss_df |>
  group_by(year,locationabbr)|>
  summarize(n_obs = n()) |>
  filter(year == 2010, n_obs >= 7)
```

    ## `summarise()` has grouped output by 'year'. You can override using the
    ## `.groups` argument.

    ## # A tibble: 45 × 3
    ## # Groups:   year [1]
    ##     year locationabbr n_obs
    ##    <int> <chr>        <int>
    ##  1  2010 AL              15
    ##  2  2010 AR              15
    ##  3  2010 AZ              15
    ##  4  2010 CA              60
    ##  5  2010 CO              35
    ##  6  2010 CT              25
    ##  7  2010 DE              15
    ##  8  2010 FL             205
    ##  9  2010 GA              20
    ## 10  2010 HI              20
    ## # ℹ 35 more rows
…
